# Blender v3.4.1 OBJ File: 'octopus.blend'
# www.blender.org
mtllib octopus.mtl
o ctrls_mesh_eyes_mesh.002
v -1.056724 0.556823 1.273450
v -0.349045 0.553346 1.507152
v -0.299227 1.338300 1.310263
v -0.956124 1.340223 1.081188
v -0.717160 0.332933 1.471788
v -0.625777 1.550132 1.172395
v -0.226585 0.933162 1.484420
v -1.143812 0.948813 1.152527
v -0.720441 0.954330 1.393559
v -0.988978 0.513527 1.091048
v -0.298974 0.511826 1.318447
v -0.250445 1.274979 1.127096
v -0.889390 1.277244 0.903911
v -0.644269 0.288439 1.264230
v -0.554287 1.478562 0.971240
v -0.161630 0.874673 1.275100
v -1.059813 0.889132 0.950385
v 1.252167 0.556823 1.045000
v 0.662437 0.553345 1.500680
v 0.549996 1.338300 1.331552
v 1.093371 1.340223 0.897119
v 0.997857 0.332933 1.344946
v 0.812137 1.550132 1.092963
v 0.539386 0.933162 1.519953
v 1.294101 0.948813 0.902003
v 0.974943 0.954330 1.270076
v 1.127635 0.513527 0.895496
v 0.552478 0.511826 1.339355
v 0.443095 1.274979 1.175022
v 0.971497 1.277244 0.752111
v 0.860108 0.288439 1.173427
v 0.677839 1.478562 0.927017
v 0.408536 0.874673 1.344135
v 1.147677 0.889132 0.739285
v 0.789209 2.031571 -0.822320
v 1.423977 -1.083460 -1.459791
v 0.783901 1.848372 0.830188
v 1.371752 -1.083521 1.394972
v -0.720436 1.824972 -0.807736
v -1.454089 -0.950643 -1.339005
v -0.680408 1.831266 0.844483
v -1.325057 -0.865638 1.300658
v -1.298482 -0.837178 0.625271
v -0.210092 -0.984169 -1.215496
v 1.075473 -0.178552 -1.276606
v -1.110853 -0.178457 1.279317
v 1.080020 -0.178561 1.279317
v -1.106306 -0.178448 -1.276607
v -0.446353 1.859081 1.000650
v 0.946250 1.917706 0.654299
v -0.410994 -1.330976 1.342476
v -0.884785 1.832151 0.613214
v -0.446061 1.848806 -1.000051
v 1.383493 -1.084340 0.563544
v -0.639743 -0.179476 -1.401024
v 1.289511 -0.179443 0.956533
v -0.587537 -1.084693 0.876145
v -1.320345 -0.179336 0.956533
v -0.639743 -0.179485 1.398419
v -0.446036 2.116244 0.691222
v 0.396051 -0.795689 1.523838
v 0.554191 -1.084287 1.394972
v 0.345652 1.890051 -1.073156
v 0.635262 1.880919 -0.944191
v 0.517862 -1.084333 -1.463389
v 0.487424 -1.084373 -1.474706
v 0.635529 1.895752 0.944616
v 0.345775 1.909014 1.073591
v 0.443922 -0.179277 -1.414694
v 0.813098 -0.179425 -1.299952
v 0.832734 -1.084656 0.876145
v 0.391754 -1.084578 0.876265
v 0.813098 -0.179435 1.297347
v 0.682021 -0.179286 1.412089
v 0.324991 2.236121 0.691222
v 0.672252 2.143073 0.691222
v -1.036432 1.826462 0.265847
v -0.889683 1.832088 -0.605732
v 1.449755 -1.043978 0.357617
v 1.435966 -1.084395 -0.480922
v -1.559080 -1.213589 -0.475576
v -1.306840 -1.084098 0.521244
v 1.019378 1.857451 -0.534747
v 1.119767 1.956641 0.289003
v 1.289156 -0.179458 -0.936982
v 1.686671 -0.240336 0.432738
v -0.587537 -1.084702 -0.863906
v -0.587537 -1.084573 0.324502
v -1.717504 -0.240216 0.432738
v -1.319989 -0.179350 -0.936982
v -0.446036 2.105761 -0.678854
v -0.446036 2.259965 0.256871
v 0.672252 2.131649 -0.678854
v 0.672252 2.299474 0.256871
v 0.324991 2.221564 -0.678854
v 0.324991 2.441433 0.256871
v 0.378609 -1.084601 -0.861545
v 0.392075 -0.813084 0.324803
v 0.821469 -1.084726 -0.855071
v 0.837080 -1.084537 0.326171
v -1.043609 1.825952 -0.234589
v 1.574605 -1.044062 -0.401827
v -1.306512 -1.084083 -0.492418
v 1.128230 1.957047 -0.255327
v 1.686671 -0.240246 -0.387738
v -0.587537 -1.084529 -0.287710
v -1.717504 -0.240126 -0.387738
v -0.446036 2.260114 -0.225170
v 0.672252 2.299626 -0.225170
v 0.324991 2.441580 -0.225170
v 0.392075 -0.813030 -0.287975
v 0.837078 -1.084493 -0.289176
v -0.424669 -1.083795 -1.245233
v -0.052624 1.910028 1.111534
v -0.076131 -1.084133 0.881567
v -0.321054 -0.178469 1.500445
v -0.345034 -0.795412 1.500278
v -0.052585 1.890394 -1.111080
v -0.080101 -0.178460 -1.503050
v -0.043073 2.237617 0.691222
v -0.076097 -1.084141 -0.868759
v -0.075758 -0.812534 0.324502
v -0.043073 2.223061 -0.678854
v -0.043073 2.442869 0.256871
v -0.043073 2.443007 -0.225170
v -0.075758 -0.812482 -0.287710
v -1.831610 -1.489771 1.116489
v -1.526878 -1.012627 1.298642
v -1.330211 -2.109945 -1.628171
v -1.390864 -1.230950 -1.384213
v 0.801629 -1.857451 1.222590
v 1.231736 -1.206037 1.548453
v 1.504887 -1.431223 -0.553490
v 1.582492 -1.256459 -1.538468
v -0.821183 -1.388669 1.606924
v 1.793420 -1.296932 0.987122
v -1.125916 -1.867468 1.424772
v -0.320428 -0.692373 1.647649
v 0.450066 -0.870526 1.714651
v 0.926833 -1.780317 -1.502292
v 1.363363 -1.947804 0.661220
v 0.342319 -1.477527 1.485375
v -1.319286 -1.327961 -0.681916
v -2.262575 -1.013514 -0.217049
v -2.188464 -1.090237 0.766645
v -1.258633 -2.206973 -0.925874
v -1.578876 -1.912313 -0.338774
v -1.504763 -1.989030 0.644919
v 0.580135 -1.227884 -1.770685
v 0.672739 -1.818655 -1.197910
v 0.911157 -1.930104 -0.773084
v 1.412059 -1.721055 -0.542614
v 1.410272 -1.743882 0.377040
v 1.676422 -1.180726 0.391634
v 1.699269 -1.192535 -0.473298
v -0.288945 -1.172384 -1.590159
v -0.419339 -1.308120 1.390408
v -0.240908 -1.783617 -1.071812
v -2.227315 -1.261676 1.590344
v -1.963333 -0.974572 1.575269
v -2.293055 -1.915057 -1.317409
v -2.038396 -1.276460 -1.124683
v 1.649733 -1.628810 1.922092
v 1.265705 -1.259778 1.464108
v 1.947650 -1.384486 -1.039189
v 1.769544 -1.359279 -1.659611
v -1.512666 -1.363652 1.947695
v 1.763915 -1.284953 1.027276
v -1.776648 -1.651959 1.962770
v -0.124135 -0.961983 2.281226
v 0.439350 -0.866764 1.852053
v 1.646820 -1.869079 -1.651105
v 2.147733 -1.653367 1.484899
v 0.665271 -1.377395 2.071285
v -1.992628 -1.379734 -0.584018
v -2.185288 -1.220443 -0.354877
v -2.145340 -1.087154 0.414075
v -2.247286 -2.018650 -0.776743
v -2.720840 -1.923706 -0.205836
v -2.681278 -1.790652 0.563224
v 0.538580 -1.302195 -1.895776
v 0.461955 -1.915351 -1.941256
v 1.942253 -1.969339 -1.154688
v 2.329509 -1.698831 -0.146345
v 2.619551 -1.478407 0.359988
v 2.338453 -1.062159 0.327246
v 2.049565 -1.283175 -0.179071
v -0.156817 -1.226328 -1.757477
v 0.069261 -1.474576 2.462727
v -0.233442 -1.839225 -1.802958
v -2.502206 -1.003822 1.997719
v -2.226658 -0.805801 1.803533
v -3.362797 -1.683064 -1.105913
v -2.819947 -1.250751 -0.948792
v 1.980866 -0.867011 2.214701
v 1.628720 -0.528558 1.794723
v 2.400862 -1.361532 -1.334915
v 2.122041 -1.267209 -1.803420
v -1.742036 -1.025381 2.263242
v 2.085515 -0.551595 1.394163
v -2.017583 -1.224062 2.457428
v 0.636152 -0.004145 2.938357
v 0.497633 -0.335375 2.444775
v 2.116949 -1.820118 -1.912424
v 2.437484 -0.889527 1.813837
v 0.791704 -0.713681 2.616522
v -2.799724 -1.377657 -0.414783
v -3.000248 -0.699530 -0.550299
v -2.725654 -0.813515 -0.015126
v -3.342574 -1.810241 -0.571904
v -3.454445 -0.271626 -0.225929
v -3.179735 -0.385671 0.309170
v 0.553815 -1.038517 -2.311903
v 0.345504 -1.485847 -2.690473
v 2.395770 -1.914847 -1.443920
v 2.899034 -0.541668 -0.424455
v 2.981707 -0.307404 0.139431
v 2.544399 -0.454278 0.268675
v 2.462026 -0.688455 -0.295314
v -0.117496 -0.899704 -2.109016
v 0.930254 -0.382214 3.109907
v -0.325807 -1.346567 -2.487587
v -2.654465 -0.322091 2.486397
v -2.378918 -0.124887 2.292212
v -3.904049 -1.065098 -0.786672
v -3.361200 -0.633354 -0.629550
v 1.215812 -0.087292 2.732146
v 1.100212 -0.051593 2.334070
v 3.283942 -0.698750 -1.702668
v 3.078431 -0.629212 -2.047990
v -1.894296 -0.344057 2.751921
v 1.363201 0.234878 2.283564
v -2.169843 -0.541961 2.946107
v 1.326037 0.242225 2.489896
v 1.219981 -0.011146 2.111526
v 3.074678 -1.036823 -2.128334
v 1.478719 0.199249 2.681512
v 1.445211 -0.301102 2.243232
v -3.340976 -0.760034 -0.095541
v -1.407527 0.764517 -0.339884
v -1.116281 0.566900 0.161041
v -3.883825 -1.192276 -0.252663
v -2.019441 0.740730 0.006509
v -1.728195 0.543113 0.507433
v 0.282732 -0.328879 -3.019109
v 0.120339 -0.676657 -3.314232
v 3.280189 -1.106625 -1.783012
v 1.638566 0.770808 -0.050993
v 1.765363 0.518032 0.531776
v 1.481211 0.113166 0.515503
v 1.353929 0.365802 -0.067099
v -0.240603 -0.221406 -2.860944
v 1.551315 -0.047377 2.621305
v -0.402996 -0.568709 -3.156067
v -0.966693 0.737486 1.120777
v 0.953755 0.737441 -1.124405
v 0.953906 0.737437 1.123424
v -0.966611 0.737491 -1.121701
v -0.605657 0.736612 -1.349972
v 1.180222 0.736567 0.881537
v -1.190930 0.736621 0.880171
v -0.605697 0.736608 1.349101
v 0.780887 0.736535 1.250521
v 0.451225 0.736911 1.404652
v 0.451196 0.736916 -1.405514
v 0.780786 0.736540 -1.251436
v 1.189691 0.736548 -0.869520
v 1.618231 0.798230 0.413074
v -1.625104 0.798292 0.413074
v -1.200377 0.736603 -0.868154
v -1.636854 0.798431 -0.371282
v 1.629981 0.798369 -0.371282
v -0.068417 0.738211 -1.476300
v -0.068417 0.738206 1.475448
v 1.023423 0.213153 -1.211521
v 1.026090 0.213146 1.212653
v -1.046568 0.213234 -1.210364
v -0.625167 0.212270 -1.379193
v 1.242776 0.212269 0.924462
v -1.265003 0.212354 0.923878
v -0.625184 0.212263 1.377329
v 0.799323 0.212261 1.277322
v 0.687998 0.212506 1.408908
v 0.447033 0.212514 -1.410768
v 0.799280 0.212268 -1.279205
v 1.246622 0.212253 -0.908134
v 1.657404 0.203785 0.424329
v -1.677991 0.203880 0.424329
v -1.268840 0.212338 -0.907549
v -1.683016 0.203991 -0.380701
v 1.662428 0.203896 -0.380701
v -0.075104 0.213535 -1.491611
v -0.311490 0.213528 1.489755
v -1.049206 0.213226 1.211521
v 0.650425 0.000905 0.142776
v 0.644448 -0.390887 0.145957
v -0.358627 -0.390070 0.234313
v -0.349063 0.001927 0.223623
v 0.720893 -0.178984 1.292375
v 0.645264 0.251036 0.788114
v 0.797480 0.039843 1.038173
v 0.680717 -0.388413 1.104557
v 0.604261 -0.030738 0.700367
v 0.752415 -0.196750 0.825562
v -0.401270 -0.178984 1.292375
v -0.325641 0.251036 0.788114
v 0.159811 -0.197827 1.567247
v 0.159811 0.488292 0.800807
v -0.477857 0.039843 1.038173
v 0.159811 0.277171 1.311514
v -0.361094 -0.388413 1.104557
v -0.284638 -0.030738 0.700367
v 0.159811 -0.501408 1.366976
v -0.432793 -0.196750 0.825562
vt 0.748087 0.494292
vt 0.755182 0.552081
vt 0.713772 0.546817
vt 0.699325 0.500279
vt 0.796849 0.488305
vt 0.794090 0.536955
vt 0.782402 0.441768
vt 0.740991 0.436504
vt 0.702084 0.451630
vt 0.674196 0.503364
vt 0.684604 0.435420
vt 0.737335 0.406723
vt 0.795441 0.421811
vt 0.811570 0.553165
vt 0.758839 0.581862
vt 0.821978 0.485219
vt 0.700733 0.566774
vt 0.913099 0.496075
vt 0.961860 0.501916
vt 0.947414 0.547314
vt 0.906003 0.552449
vt 0.864337 0.490235
vt 0.867095 0.537693
vt 0.878783 0.444838
vt 0.920194 0.439703
vt 0.959101 0.454458
vt 0.976581 0.438645
vt 0.986990 0.504925
vt 0.865744 0.425369
vt 0.923851 0.410651
vt 0.902346 0.581500
vt 0.849616 0.553506
vt 0.839207 0.487225
vt 0.960453 0.566782
vt 0.805755 0.711403
vt 0.875000 0.711403
vt 0.875000 0.750000
vt 0.805755 0.750000
vt 0.562500 0.930755
vt 0.625000 0.930754
vt 0.625000 1.000000
vt 0.562500 1.000000
vt 0.562500 0.209857
vt 0.625000 0.209857
vt 0.625000 0.250000
vt 0.562500 0.250000
vt 0.375000 0.657109
vt 0.334032 0.657109
vt 0.334032 0.657109
vt 0.375000 0.657109
vt 0.562500 0.711403
vt 0.625000 0.711403
vt 0.625000 0.750000
vt 0.562500 0.750000
vt 0.562500 0.459032
vt 0.625000 0.459032
vt 0.625000 0.500000
vt 0.562500 0.500000
vt 0.375000 0.459032
vt 0.500000 0.459032
vt 0.500000 0.500000
vt 0.375000 0.500000
vt 0.375000 0.250000
vt 0.500000 0.250000
vt 0.500000 0.319246
vt 0.375000 0.319246
vt 0.625000 0.319246
vt 0.562500 0.319246
vt 0.375000 0.711403
vt 0.500000 0.711403
vt 0.500000 0.750000
vt 0.375000 0.750000
vt 0.500000 0.657109
vt 0.562500 0.657109
vt 0.625000 0.657109
vt 0.244616 0.750000
vt 0.244616 0.711403
vt 0.244616 0.711403
vt 0.244616 0.750000
vt 0.125000 0.657109
vt 0.194246 0.657109
vt 0.194246 0.711403
vt 0.125000 0.711403
vt 0.334032 0.711403
vt 0.375000 0.209857
vt 0.500000 0.209857
vt 0.375000 0.000000
vt 0.500000 0.000000
vt 0.500000 0.038597
vt 0.375000 0.038597
vt 0.562500 0.000000
vt 0.625000 0.000000
vt 0.625000 0.038597
vt 0.562500 0.038597
vt 0.375000 0.930754
vt 0.500000 0.930755
vt 0.500000 1.000000
vt 0.375000 1.000000
vt 0.375000 0.880384
vt 0.500000 0.880384
vt 0.562500 0.880384
vt 0.625000 0.880384
vt 0.755384 0.711403
vt 0.755384 0.750000
vt 0.755384 0.657109
vt 0.805755 0.657109
vt 0.875000 0.657109
vt 0.665969 0.657109
vt 0.665968 0.711403
vt 0.709376 0.657109
vt 0.709376 0.711403
vt 0.665968 0.750000
vt 0.709376 0.750000
vt 0.625000 0.790968
vt 0.562500 0.790968
vt 0.625000 0.834376
vt 0.562500 0.834376
vt 0.500000 0.790968
vt 0.375000 0.790969
vt 0.500000 0.834376
vt 0.375000 0.834376
vt 0.244616 0.657109
vt 0.290624 0.657109
vt 0.290624 0.711403
vt 0.375000 0.369616
vt 0.500000 0.369616
vt 0.500000 0.415624
vt 0.375000 0.415624
vt 0.562500 0.369616
vt 0.625000 0.369616
vt 0.625000 0.415624
vt 0.562500 0.415624
vt 0.375000 0.540143
vt 0.375000 0.540143
vt 0.375000 0.500000
vt 0.334032 0.750000
vt 0.290624 0.750000
vt 0.290624 0.500000
vt 0.334032 0.500000
vt 0.334031 0.540143
vt 0.290624 0.540143
vt 0.290624 0.596854
vt 0.334032 0.596854
vt 0.290624 0.750000
vt 0.290624 0.711403
vt 0.244616 0.596854
vt 0.665968 0.500000
vt 0.709376 0.500000
vt 0.709376 0.540143
vt 0.665968 0.540143
vt 0.665968 0.596854
vt 0.709376 0.596854
vt 0.625000 0.540143
vt 0.625000 0.596854
vt 0.805755 0.500000
vt 0.875000 0.500000
vt 0.875000 0.540143
vt 0.805755 0.540143
vt 0.805754 0.596854
vt 0.875000 0.596854
vt 0.755384 0.500000
vt 0.755384 0.540143
vt 0.755384 0.596854
vt 0.500000 0.092891
vt 0.375000 0.092891
vt 0.375000 0.153146
vt 0.500000 0.153146
vt 0.334031 0.540143
vt 0.194246 0.596854
vt 0.194246 0.657109
vt 0.194246 0.596854
vt 0.244616 0.540143
vt 0.244616 0.500000
vt 0.244616 0.500000
vt 0.244616 0.540143
vt 0.375000 0.596854
vt 0.375000 0.596854
vt 0.334032 0.596854
vt 0.562500 0.540143
vt 0.562500 0.596854
vt 0.500000 0.540143
vt 0.500000 0.596854
vt 0.625000 0.092891
vt 0.562500 0.092891
vt 0.562500 0.153146
vt 0.625000 0.153146
vt 0.125000 0.540143
vt 0.194246 0.540143
vt 0.125000 0.596854
vt 0.194246 0.500000
vt 0.194246 0.750000
vt 0.334032 0.657109
vt 0.375000 0.657109
vt 0.125000 0.711403
vt 0.194246 0.711403
vt 0.194246 0.711403
vt 0.125000 0.711403
vt 0.334031 0.540143
vt 0.375000 0.540143
vt 0.194246 0.750000
vt 0.194246 0.750000
vt 0.334032 0.596854
vt 0.375000 0.711403
vt 0.375000 0.750000
vt 0.375000 0.750000
vt 0.375000 0.711403
vt 0.334032 0.500000
vt 0.334032 0.500000
vt 0.244616 0.711403
vt 0.244616 0.750000
vt 0.375000 0.459032
vt 0.334032 0.711403
vt 0.334032 0.750000
vt 0.290624 0.540143
vt 0.125000 0.540143
vt 0.194246 0.540143
vt 0.375000 0.038597
vt 0.375000 0.000000
vt 0.125000 0.657109
vt 0.375000 0.319246
vt 0.375000 0.250000
vt 0.375000 0.209857
vt 0.375000 0.415624
vt 0.375000 0.369616
vt 0.375000 0.153146
vt 0.375000 0.092891
vt 0.290624 0.500000
vt 0.375000 1.000000
vt 0.375000 0.930754
vt 0.375000 0.880384
vt 0.375000 0.834376
vt 0.375000 0.790969
vt 0.125000 0.596854
vt 0.194246 0.500000
vt 0.290624 0.711403
vt 0.290624 0.750000
vt 0.290624 0.750000
vt 0.290624 0.711403
vt 0.375000 0.596854
vt 0.375000 0.657109
vt 0.375000 0.596854
vt 0.334032 0.711403
vt 0.375000 0.711403
vt 0.334032 0.711403
vt 0.194246 0.657109
vt 0.125000 0.657109
vt 0.125000 0.657109
vt 0.194246 0.657109
vt 0.375000 0.459032
vt 0.375000 0.500000
vt 0.375000 0.500000
vt 0.375000 0.459032
vt 0.194246 0.540143
vt 0.125000 0.540143
vt 0.125000 0.540143
vt 0.194246 0.540143
vt 0.375000 0.834376
vt 0.375000 0.880384
vt 0.375000 0.880384
vt 0.375000 0.834376
vt 0.334032 0.657109
vt 0.194246 0.596854
vt 0.125000 0.596854
vt 0.334032 0.750000
vt 0.375000 0.250000
vt 0.375000 0.209857
vt 0.375000 0.038597
vt 0.375000 0.000000
vt 0.375000 0.415624
vt 0.375000 0.369616
vt 0.375000 0.153146
vt 0.375000 0.092891
vt 0.375000 0.319246
vt 0.194246 0.500000
vt 0.375000 0.790969
vt 0.244616 0.540143
vt 0.290624 0.540143
vt 0.244616 0.500000
vt 0.290624 0.500000
vt 0.375000 1.000000
vt 0.375000 0.930754
vt 0.375000 0.369616
vt 0.375000 0.415624
vt 0.375000 0.415624
vt 0.375000 0.369616
vt 0.375000 0.000000
vt 0.375000 0.038597
vt 0.375000 0.038597
vt 0.375000 0.000000
vt 0.375000 0.209857
vt 0.375000 0.250000
vt 0.375000 0.250000
vt 0.375000 0.209857
vt 0.334032 0.596854
vt 0.375000 0.596854
vt 0.334032 0.596854
vt 0.334032 0.750000
vt 0.334032 0.711403
vt 0.334032 0.750000
vt 0.125000 0.596854
vt 0.194246 0.596854
vt 0.194246 0.596854
vt 0.125000 0.596854
vt 0.290624 0.750000
vt 0.290624 0.711403
vt 0.375000 0.657109
vt 0.375000 0.153146
vt 0.375000 0.092891
vt 0.375000 0.319246
vt 0.244616 0.711403
vt 0.194246 0.500000
vt 0.375000 0.790969
vt 0.375000 0.750000
vt 0.244616 0.540143
vt 0.290624 0.540143
vt 0.375000 0.540143
vt 0.244616 0.500000
vt 0.290624 0.500000
vt 0.375000 1.000000
vt 0.375000 0.930754
vt 0.244616 0.750000
vt 0.334032 0.500000
vt 0.334031 0.540143
vt 0.194246 0.750000
vt 0.194246 0.711403
vt 0.125000 0.711403
vt 0.375000 0.711403
vt 0.375000 0.750000
vt 0.125000 0.711403
vt 0.194246 0.711403
vt 0.194246 0.750000
vt 0.125000 0.750000
vt 0.244616 0.711403
vt 0.244616 0.750000
vt 0.244616 0.500000
vt 0.290624 0.500000
vt 0.290624 0.540143
vt 0.244616 0.540143
vt 0.334032 0.500000
vt 0.375000 0.500000
vt 0.375000 0.540143
vt 0.334031 0.540143
vt 0.334032 0.657109
vt 0.125000 0.500000
vt 0.194246 0.500000
vt 0.194246 0.540143
vt 0.125000 0.540143
vt 0.194246 0.657109
vt 0.125000 0.657109
vt 0.375000 0.153146
vt 0.375000 0.092891
vt 0.375000 0.319246
vt 0.375000 0.790969
vt 0.375000 1.000000
vt 0.375000 0.930754
vt 0.375000 0.880384
vt 0.375000 0.834376
vt 0.375000 0.459032
vt 0.526727 0.834376
vt 0.526727 0.880384
vt 0.526727 0.319246
vt 0.526727 0.369616
vt 0.526727 0.540143
vt 0.526727 0.596854
vt 0.526727 0.092891
vt 0.526727 0.153146
vt 0.526727 0.209857
vt 0.526727 0.038597
vt 0.526727 0.657109
vt 0.526727 0.500000
vt 0.526727 0.415624
vt 0.526727 0.459032
vt 0.526727 0.790968
vt 0.526727 0.750000
vt 0.526727 0.930755
vt 0.526727 0.000000
vt 0.526727 0.711403
vt 0.526727 0.250000
vt 0.526727 1.000000
vt 0.526727 0.880384
vt 0.526727 0.834376
vt 0.500000 0.834376
vt 0.500000 0.880384
vt 0.101149 0.530631
vt 0.143318 0.525271
vt 0.145246 0.562164
vt 0.101149 0.562164
vt 0.101149 0.501029
vt 0.133456 0.507011
vt 0.150413 0.491870
vt 0.166739 0.519079
vt 0.101149 0.474676
vt 0.169669 0.562164
vt 0.057052 0.562164
vt 0.058980 0.525271
vt 0.068842 0.507011
vt 0.035559 0.519079
vt 0.051885 0.491870
vt 0.032629 0.562164
vn -0.3228 0.2507 0.9127
vn -0.1113 0.9444 0.3094
vn -0.7417 0.6566 0.1370
vn -0.9511 0.1708 0.2574
vn 0.5715 0.1514 0.8065
vn 0.5136 0.6402 0.5713
vn 0.4373 -0.3603 0.8240
vn -0.2320 -0.6656 0.7093
vn -0.8412 -0.3623 0.4015
vn -0.9246 0.0189 -0.3805
vn -0.7853 -0.5984 -0.1588
vn -0.0381 -0.9812 0.1890
vn 0.7271 -0.5913 0.3490
vn 0.8178 0.5734 0.0487
vn 0.1087 0.9440 -0.3115
vn 0.9619 -0.0117 0.2732
vn -0.6618 0.5912 -0.4610
vn 0.6078 0.2507 0.7535
vn 0.9826 0.1708 -0.0734
vn 0.7450 0.6566 -0.1174
vn 0.2079 0.9444 0.2548
vn -0.2709 0.1514 0.9506
vn -0.2945 0.6402 0.7096
vn -0.1385 -0.3603 0.9225
vn 0.4547 -0.6656 0.5918
vn 0.9268 -0.3623 0.0990
vn 0.6878 -0.5984 -0.4108
vn 0.7455 0.0189 -0.6662
vn -0.5697 -0.5913 0.5708
vn 0.0988 -0.9812 0.1656
vn -0.2061 0.9440 -0.2577
vn -0.7551 0.5734 0.3178
vn -0.8164 -0.0117 0.5774
vn 0.4709 0.5912 -0.6547
vn -0.4135 0.7958 0.4423
vn -0.6561 0.5803 0.4824
vn -0.5720 0.5136 0.6396
vn -0.3831 0.5334 0.7541
vn -0.3766 0.2211 0.8996
vn -0.6154 0.2548 0.7459
vn -0.7479 0.2601 -0.6108
vn -0.6556 0.5875 -0.4743
vn -0.5700 0.5242 -0.6327
vn -0.6201 0.2532 -0.7426
vn 0.7236 -0.1391 0.6760
vn -0.4231 -0.9028 0.0772
vn -0.2867 -0.7106 0.6425
vn 0.1968 0.5754 0.7938
vn 0.7349 0.2158 0.6429
vn 0.6712 0.4995 0.5477
vn 0.6166 0.3796 0.6898
vn 0.6253 0.2194 0.7489
vn 0.4336 0.1810 -0.8827
vn 0.4062 0.4912 -0.7705
vn 0.5709 0.6142 -0.5448
vn 0.6293 0.2117 -0.7478
vn -0.1647 -0.5070 -0.8461
vn 0.1934 0.1126 -0.9746
vn 0.5531 0.2117 -0.8058
vn 0.6110 0.3098 -0.7285
vn -0.6816 -0.0176 -0.7315
vn -0.5586 0.1285 -0.8194
vn -0.2051 -0.0247 -0.9784
vn 0.0052 -0.4877 -0.8730
vn -0.3771 0.5421 -0.7509
vn -0.3659 0.2088 -0.9069
vn 0.8356 -0.5290 -0.1479
vn 0.8798 0.0913 0.4665
vn 0.5470 0.1726 0.8192
vn 0.5758 0.4910 0.6537
vn 0.9446 -0.0720 0.3203
vn 0.9137 0.2307 0.3347
vn 0.7707 0.5909 0.2384
vn -0.6684 0.2661 0.6946
vn 0.0543 -0.9181 -0.3925
vn -0.7989 -0.5570 -0.2270
vn -0.5193 0.8405 0.1547
vn -0.2801 -0.0710 0.9573
vn 0.3937 -0.9116 0.1184
vn 0.2906 -0.9342 -0.2070
vn -0.8353 -0.5000 0.2287
vn -0.4426 -0.7691 -0.4610
vn -0.9056 -0.4230 0.0291
vn -0.9016 0.1418 -0.4087
vn -0.5287 0.4794 0.7004
vn -0.6007 0.1087 0.7920
vn -0.8716 0.0560 0.4871
vn -0.7359 0.2651 0.6231
vn 0.5580 -0.6291 0.5412
vn -0.2984 0.0227 0.9542
vn 0.1143 0.3433 0.9322
vn -0.0531 0.1746 0.9832
vn -0.0890 0.5538 0.8279
vn -0.1382 0.8497 0.5088
vn -0.1873 0.9621 0.1981
vn -0.4784 0.8644 0.1550
vn -0.7340 0.6445 0.2141
vn 0.4726 0.8644 0.1718
vn 0.4360 0.7465 0.5026
vn 0.1739 0.9639 0.2016
vn 0.1480 0.8392 0.5232
vn 0.4479 0.4801 0.7542
vn 0.2066 0.5310 0.8218
vn 0.4955 0.2140 0.8419
vn 0.2684 0.1787 0.9466
vn 0.3629 0.0555 0.9302
vn -0.4052 -0.5677 0.7166
vn 0.1423 0.3952 0.9075
vn 0.6994 0.1712 0.6939
vn 0.1838 -0.9678 -0.1721
vn -0.2087 -0.9626 -0.1729
vn -0.0378 -0.9589 -0.2812
vn -0.8225 -0.1554 -0.5471
vn -0.1181 -0.0603 -0.9912
vn 0.1717 0.0081 -0.9851
vn 0.6113 0.2932 -0.7351
vn -0.0518 0.1684 -0.9844
vn -0.0858 0.5583 -0.8252
vn 0.2042 0.5366 -0.8188
vn 0.2670 0.1585 -0.9506
vn 0.7660 -0.6316 0.1197
vn 0.4077 0.0629 0.9109
vn 0.2411 0.6789 -0.6935
vn -0.4970 -0.7817 0.3767
vn 0.1323 -0.8310 0.5403
vn -0.2100 -0.9632 0.1677
vn -0.4669 -0.8815 -0.0704
vn 0.7984 0.5909 -0.1162
vn 0.4968 -0.8150 -0.2981
vn 0.1836 -0.9689 0.1660
vn 0.1445 0.8392 -0.5242
vn 0.3836 0.8148 -0.4348
vn 0.4754 0.8609 -0.1811
vn 0.1729 0.9632 -0.2059
vn 0.7067 0.4873 -0.5130
vn 0.7663 0.6006 -0.2281
vn -0.4025 0.8028 -0.4399
vn -0.4749 0.8663 -0.1548
vn -0.7366 0.6463 -0.1992
vn -0.1342 0.8497 -0.5098
vn -0.1862 0.9614 -0.2024
vn -0.9381 -0.1527 0.3109
vn -0.6080 -0.5720 -0.5506
vn -0.9716 -0.1112 -0.2087
vn -0.4541 -0.6944 0.5581
vn 0.3872 -0.9211 -0.0399
vn 0.2726 -0.7107 0.6486
vn 0.2109 -0.7472 -0.6302
vn -0.1648 -0.8257 0.5394
vn -0.7622 0.5991 -0.2453
vn -0.5700 -0.6473 0.5061
vn 0.7723 0.1540 -0.6163
vn 0.2910 0.5256 -0.7994
vn -0.2086 -0.6384 -0.7409
vn 0.7627 0.2084 -0.6123
vn 0.9192 0.2316 -0.3184
vn 0.8750 0.1212 -0.4687
vn 0.9499 -0.0621 -0.3064
vn -0.8995 0.2909 0.3261
vn -0.9083 0.2884 -0.3031
vn 0.3856 -0.8810 0.2740
vn 0.6288 -0.5091 0.5878
vn -0.2598 0.4641 0.8468
vn -0.5988 -0.3839 -0.7029
vn 0.2104 -0.9752 -0.0689
vn -0.1115 -0.8827 0.4565
vn -0.8251 -0.2936 -0.4827
vn 0.2992 -0.8570 0.4196
vn 0.4546 0.5532 0.6981
vn 0.6312 -0.0440 0.7744
vn 0.6663 0.1771 0.7243
vn 0.4359 -0.7669 -0.4711
vn 0.7660 0.2378 -0.5973
vn -0.1171 0.0640 0.9911
vn -0.4871 -0.1044 0.8671
vn 0.8823 -0.3021 -0.3610
vn -0.5756 -0.5439 -0.6106
vn -0.2686 -0.6392 -0.7207
vn -0.3281 -0.7309 0.5984
vn -0.8231 0.3709 0.4301
vn 0.0098 -0.7450 -0.6670
vn -0.7208 -0.6682 0.1840
vn 0.7184 -0.5565 0.4172
vn -0.2473 -0.1815 0.9518
vn 0.3199 -0.8255 0.4650
vn -0.3576 0.9256 0.1242
vn -0.1366 0.4903 0.8608
vn 0.1663 -0.6272 -0.7609
vn -0.3186 0.3341 -0.8871
vn 0.7111 0.6326 -0.3068
vn -0.7862 0.1760 -0.5924
vn 0.8014 -0.5901 -0.0977
vn 0.5762 0.7606 -0.2991
vn -0.3153 0.5711 -0.7579
vn 0.7783 -0.6252 -0.0577
vn -0.0479 0.5586 -0.8281
vn -0.2525 -0.1735 0.9519
vn -0.6043 -0.0701 -0.7937
vn 0.7642 -0.6438 -0.0385
vn 0.3378 0.6114 -0.7156
vn 0.9902 0.0010 0.1393
vn -0.5125 -0.5215 0.6822
vn -0.5761 -0.0788 0.8136
vn 0.8667 0.3012 0.3977
vn -0.5795 0.0706 0.8119
vn -0.2554 0.7212 -0.6439
vn -0.4576 0.7323 -0.5043
vn -0.0874 -0.5684 -0.8181
vn -0.0671 -0.8644 0.4983
vn 0.1108 0.4919 0.8636
vn 0.4066 0.1878 0.8941
vn -0.3503 -0.8357 0.4229
vn -0.4844 0.7210 0.4956
vn 0.8556 0.2962 0.4245
vn -0.5279 -0.7319 -0.4308
vn -0.0707 0.1009 -0.9924
vn -0.1446 -0.5838 0.7989
vn -0.1393 0.8764 -0.4611
vn -0.0559 0.8758 -0.4795
vn 0.8952 0.4298 -0.1175
vn -0.7002 0.7139 0.0072
vn -0.3337 -0.4817 -0.8103
vn -0.6955 -0.7040 -0.1438
vn 0.4852 -0.8237 -0.2936
vn -0.4231 0.6666 0.6137
vn 0.9078 0.3862 0.1638
vn 0.6266 0.7369 -0.2538
vn -0.4103 0.9071 0.0936
vn -0.0851 0.6494 -0.7557
vn -0.9456 -0.2690 -0.1828
vn -0.9057 0.3502 0.2389
vn -0.0938 0.9377 -0.3345
vn 0.1498 0.7978 -0.5840
vn 0.0556 0.9589 -0.2783
vn 0.1058 0.5769 0.8099
vn 0.6725 0.0637 -0.7373
vn -0.9393 -0.0172 -0.3426
vn -0.2274 0.8658 -0.4458
vn 0.0654 -0.3889 0.9190
vn 0.2732 0.7255 0.6317
vn -0.5453 -0.0553 0.8364
vn -0.0137 -0.0056 -0.9999
vn -0.8816 0.3511 -0.3153
vn -0.3529 0.9303 -0.1002
vn 0.5654 0.4904 -0.6633
vn 0.0375 0.3550 -0.9341
vn 0.6811 -0.4769 -0.5556
vn -0.6109 -0.2823 0.7397
vn -0.4803 -0.4069 -0.7770
vn 0.2112 -0.1795 0.9608
vn -0.9290 0.0823 -0.3608
vn -0.8645 -0.4218 -0.2732
vn 0.4367 -0.6247 -0.6473
vn 0.2364 0.4729 0.8488
vn 0.9394 0.1960 0.2814
vn 0.5304 -0.8036 0.2701
vn -0.0572 -0.6949 0.7168
vn -0.1893 0.9331 -0.3058
vn -0.9819 0.0164 -0.1889
vn -0.1111 -0.0117 0.9937
vn 0.7015 0.5752 0.4209
vn 0.9325 0.1242 0.3391
vn 0.2891 0.9565 -0.0386
vn 0.2499 -0.0546 -0.9667
vn -0.7891 0.1299 -0.6004
vn 0.3668 -0.1830 -0.9121
vn 0.1246 0.8505 -0.5111
vn 0.6432 0.6477 0.4084
vn 0.9116 -0.3943 0.1163
vn 0.0321 0.7137 0.6998
vn -0.8438 0.2353 -0.4823
vn -0.7797 -0.1123 0.6160
vn 0.0765 0.3519 0.9329
vn 0.9293 0.1441 0.3402
vn 0.1929 -0.2829 0.9396
vn 0.1091 -0.2519 0.9616
vn -0.2927 0.0932 -0.9516
vn -0.0255 0.0327 -0.9991
vn 0.7856 0.1276 -0.6054
vn 0.9427 0.0790 -0.3242
vn -0.9343 0.1066 0.3401
vn -0.9412 0.1006 -0.3227
vn -0.7845 0.1452 -0.6028
vn -0.7726 0.1555 0.6155
vn 0.9359 0.0852 0.3417
vn 0.5758 0.1548 -0.8028
vn 0.2546 0.0262 -0.9667
vn 0.3342 0.0817 -0.9389
vn 0.4730 0.1137 0.8737
vn 0.5652 0.1606 0.8092
vn -0.3350 0.1087 0.9359
vn -0.5966 0.1726 0.7837
vn 0.7738 0.1382 0.6182
vn -0.6045 0.1670 -0.7789
vn 0.6085 -0.5280 0.5924
vn -0.5580 -0.5120 0.6531
vn -0.5334 0.6320 0.5622
vn 0.6065 0.6286 0.4868
vn -0.0000 0.7567 0.6538
vn 0.9133 0.3619 0.1869
vn 0.7097 0.7022 0.0568
vn -0.0000 0.9127 0.4087
vn -0.0000 -0.0504 0.9987
vn 0.7329 -0.0677 0.6770
vn 0.7857 -0.4511 0.4234
vn 0.9699 -0.0482 -0.2389
vn 0.0000 -0.6261 0.7797
vn 0.8424 0.1585 -0.5150
vn -0.7097 0.7022 0.0568
vn -0.9133 0.3619 0.1869
vn -0.7329 -0.0677 0.6770
vn -0.9699 -0.0482 -0.2389
vn -0.7857 -0.4511 0.4234
vn -0.8424 0.1585 -0.5150
usemtl segments
s 1
f 9/1/1 6/2/2 4/3/3 8/4/4
f 7/5/5 3/6/6 6/2/2 9/1/1
f 2/7/7 7/5/5 9/1/1 5/8/8
f 5/8/8 9/1/1 8/4/4 1/9/9
f 8/4/4 17/10/10 10/11/11 1/9/9
f 5/8/8 14/12/12 11/13/13 2/7/7
f 3/6/6 12/14/14 15/15/15 6/2/2
f 1/9/9 10/11/11 14/12/12 5/8/8
f 7/5/5 16/16/16 12/14/14 3/6/6
f 6/2/2 15/15/15 13/17/17 4/3/3
f 4/3/3 13/17/17 17/10/10 8/4/4
f 2/7/7 11/13/13 16/16/16 7/5/5
f 26/18/18 25/19/19 21/20/20 23/21/21
f 24/22/22 26/18/18 23/21/21 20/23/23
f 19/24/24 22/25/25 26/18/18 24/22/22
f 22/25/25 18/26/26 25/19/19 26/18/18
f 25/19/19 18/26/26 27/27/27 34/28/28
f 22/25/25 19/24/24 28/29/29 31/30/30
f 20/23/23 23/21/21 32/31/31 29/32/32
f 18/26/26 22/25/25 31/30/30 27/27/27
f 24/22/22 20/23/23 29/32/32 33/33/33
f 23/21/21 21/20/20 30/34/34 32/31/31
f 21/20/20 25/19/19 34/28/28 30/34/34
f 19/24/24 24/22/22 33/33/33 28/29/29
usemtl skin
f 60/35/35 52/36/36 41/37/37 49/38/38
f 262/39/39 49/40/38 41/41/37 255/42/40
f 270/43/41 78/44/42 39/45/43 258/46/44
f 79/47/45 100/48/46 153/49/47 154/50/48
f 260/51/49 50/52/50 37/53/51 257/54/52
f 266/55/53 64/56/54 35/57/55 256/58/56
f 65/59/57 70/60/58 45/61/59 36/62/60
f 40/63/61 48/64/62 55/65/63 44/66/64
f 258/46/44 39/45/43 53/67/65 259/68/66
f 54/69/67 56/70/68 47/71/69 38/72/70
f 79/47/45 86/73/71 56/70/68 54/69/67
f 268/74/72 84/75/73 50/52/50 260/51/49
f 117/76/74 115/77/75 157/78/76 138/79/77
f 82/80/78 88/81/79 57/82/80 43/83/81
f 100/48/46 79/47/45 54/69/67 71/84/82
f 81/85/83 90/86/84 48/64/62 40/63/61
f 42/87/85 46/88/86 58/89/87 43/90/81
f 255/91/40 41/92/37 52/93/36 261/94/88
f 51/95/89 59/96/90 46/97/86 42/98/85
f 117/99/74 116/100/91 59/96/90 51/95/89
f 274/101/92 114/102/93 49/40/38 262/39/39
f 120/103/94 60/35/35 49/38/38 114/104/93
f 124/105/95 92/106/96 60/35/35 120/103/94
f 92/106/96 77/107/97 52/36/36 60/35/35
f 84/75/73 94/108/98 76/109/99 50/52/50
f 94/108/98 96/110/100 75/111/101 76/109/99
f 50/52/50 76/109/99 67/112/102 37/53/51
f 76/109/99 75/111/101 68/113/103 67/112/102
f 257/54/52 37/53/51 67/114/102 263/115/104
f 263/115/104 67/114/102 68/116/103 264/117/105
f 38/72/70 47/71/69 73/118/106 62/119/107
f 62/119/107 73/118/106 74/120/108 61/121/109
f 122/122/110 98/123/111 72/124/112 115/77/75
f 98/123/111 100/48/46 71/84/82 72/124/112
f 113/125/113 119/126/114 69/127/115 66/128/116
f 66/128/116 69/127/115 70/60/58 65/59/57
f 273/129/117 118/130/118 63/131/119 265/132/120
f 265/132/120 63/131/119 64/56/54 266/55/53
f 36/62/60 80/133/121 133/134/122 134/135/123
f 72/124/112 71/84/82 62/136/107 61/137/109
f 66/138/116 65/139/57 99/140/124 97/141/125
f 111/142/126 112/143/127 100/48/46 98/123/111
f 72/124/112 61/137/109 139/144/128 142/145/129
f 126/146/130 111/142/126 98/123/111 122/122/110
f 64/147/54 63/148/119 95/149/131 93/150/132
f 109/151/133 110/152/134 96/110/100 94/108/98
f 35/57/55 64/147/54 93/150/132 83/153/135
f 104/154/136 109/151/133 94/108/98 84/75/73
f 53/155/65 39/156/43 78/157/42 91/158/137
f 108/159/138 101/160/139 77/107/97 92/106/96
f 118/161/118 53/155/65 91/158/137 123/162/140
f 125/163/141 108/159/138 92/106/96 124/105/95
f 43/90/81 58/89/87 89/164/142 82/165/78
f 103/166/143 107/167/144 90/86/84 81/85/83
f 80/133/121 99/140/124 151/168/145 133/134/122
f 106/169/146 88/81/79 148/170/147 147/171/148
f 121/172/149 113/173/113 156/174/150 158/175/151
f 112/143/127 102/176/152 155/177/153 152/178/154
f 256/58/56 35/57/55 83/153/135 267/179/155
f 272/180/156 104/154/136 84/75/73 268/74/72
f 36/62/60 45/61/59 85/181/157 80/133/121
f 102/176/152 105/182/158 86/73/71 79/47/45
f 261/94/88 52/93/36 77/183/97 269/184/159
f 271/185/160 101/186/139 78/44/42 270/43/41
f 269/184/159 77/183/97 101/186/139 271/185/160
f 80/133/121 85/181/157 105/182/158 102/176/152
f 267/179/155 83/153/135 104/154/136 272/180/156
f 81/187/83 87/188/161 106/169/146 103/189/143
f 99/140/124 80/133/121 102/176/152 112/143/127
f 82/165/78 89/164/142 107/167/144 103/166/143
f 123/162/140 91/158/137 108/159/138 125/163/141
f 91/158/137 78/157/42 101/160/139 108/159/138
f 83/153/135 93/150/132 109/151/133 104/154/136
f 93/150/132 95/149/131 110/152/134 109/151/133
f 121/172/149 97/141/125 111/142/126 126/146/130
f 97/141/125 99/140/124 112/143/127 111/142/126
f 87/188/161 121/172/149 126/146/130 106/169/146
f 95/149/131 123/162/140 125/163/141 110/152/134
f 110/152/134 125/163/141 124/105/95 96/110/100
f 63/148/119 118/161/118 123/162/140 95/149/131
f 106/169/146 126/146/130 122/122/110 88/81/79
f 44/190/64 113/173/113 121/172/149 87/188/161
f 57/82/80 115/77/75 117/76/74 51/191/89
f 259/68/66 53/67/65 118/130/118 273/129/117
f 44/66/64 55/65/63 119/126/114 113/125/113
f 88/81/79 122/122/110 115/77/75 57/82/80
f 96/110/100 124/105/95 120/103/94 75/111/101
f 75/111/101 120/103/94 114/104/93 68/113/103
f 264/117/105 68/116/103 114/102/93 274/101/92
f 61/121/109 74/120/108 116/100/91 117/99/74
f 154/50/48 153/49/47 185/192/162 186/193/163
f 127/194/164 137/195/165 169/196/166 159/197/167
f 133/134/122 151/168/145 183/198/168 165/199/169
f 137/195/165 135/200/170 167/201/171 169/196/166
f 153/49/47 152/178/154 184/202/172 185/192/162
f 136/203/173 132/204/174 164/205/175 168/206/176
f 151/168/145 140/207/177 172/208/178 183/198/168
f 138/79/77 157/78/76 189/209/179 170/210/180
f 65/59/57 36/62/60 134/135/123 140/211/177
f 62/136/107 71/84/82 141/212/181 131/213/182
f 97/141/125 121/172/149 158/175/151 150/214/183
f 87/188/161 81/187/83 143/215/184 146/216/185
f 42/87/85 43/90/81 127/217/164 128/218/186
f 88/81/79 82/80/78 145/219/187 148/170/147
f 40/63/61 44/66/64 129/220/188 130/221/189
f 81/85/83 40/63/61 130/221/189 143/222/184
f 71/84/82 54/69/67 136/203/173 141/212/181
f 113/125/113 66/128/116 149/223/190 156/224/150
f 82/165/78 103/166/143 144/225/191 145/226/187
f 57/82/80 51/191/89 135/200/170 137/195/165
f 66/138/116 97/141/125 150/214/183 149/227/190
f 115/77/75 72/124/112 142/145/129 157/78/76
f 51/95/89 42/98/85 128/228/186 135/229/170
f 43/83/81 57/82/80 137/195/165 127/194/164
f 61/121/109 117/99/74 138/230/77 139/231/128
f 38/72/70 62/119/107 131/232/182 132/204/174
f 99/140/124 65/139/57 140/207/177 151/168/145
f 102/176/152 79/47/45 154/50/48 155/177/153
f 103/189/143 106/169/146 147/171/148 144/233/191
f 100/48/46 112/143/127 152/178/154 153/49/47
f 44/190/64 87/188/161 146/216/185 129/234/188
f 54/69/67 38/72/70 132/204/174 136/203/173
f 174/235/192 171/236/193 203/237/194 206/238/195
f 187/239/196 186/193/163 218/240/197 219/241/198
f 173/242/199 168/206/176 200/243/200 205/244/201
f 180/245/202 177/246/203 209/247/204 212/248/205
f 172/249/178 166/250/206 198/251/207 204/252/208
f 178/253/209 175/254/210 207/255/211 210/256/212
f 171/257/193 170/258/180 202/259/213 203/260/194
f 186/193/163 185/192/162 217/261/214 218/240/197
f 139/231/128 138/230/77 170/258/180 171/257/193
f 146/216/185 143/215/184 175/254/210 178/253/209
f 140/211/177 134/135/123 166/250/206 172/249/178
f 148/170/147 145/219/187 177/246/203 180/245/202
f 141/212/181 136/203/173 168/206/176 173/242/199
f 155/177/153 154/50/48 186/193/163 187/239/196
f 142/145/129 139/144/128 171/236/193 174/235/192
f 144/233/191 147/171/148 179/262/215 176/263/216
f 131/213/182 141/212/181 173/242/199 163/264/217
f 152/178/154 155/177/153 187/239/196 184/202/172
f 143/222/184 130/221/189 162/265/218 175/266/210
f 128/218/186 127/217/164 159/267/167 160/268/219
f 156/224/150 149/223/190 181/269/220 188/270/221
f 145/226/187 144/225/191 176/271/216 177/272/203
f 130/221/189 129/220/188 161/273/222 162/265/218
f 157/78/76 142/145/129 174/235/192 189/209/179
f 129/234/188 146/216/185 178/253/209 161/274/222
f 132/204/174 131/232/182 163/275/217 164/205/175
f 150/214/183 158/175/151 190/276/223 182/277/224
f 147/171/148 148/170/147 180/245/202 179/262/215
f 134/135/123 133/134/122 165/199/169 166/250/206
f 158/175/151 156/174/150 188/278/221 190/276/223
f 149/227/190 150/214/183 182/277/224 181/279/220
f 135/229/170 128/228/186 160/280/219 167/281/171
f 220/282/225 213/283/226 245/284/227 252/285/228
f 192/286/229 191/287/230 223/288/231 224/289/232
f 207/290/211 194/291/233 226/292/234 239/293/235
f 216/294/236 219/241/198 251/295/237 248/296/238
f 195/297/239 205/244/201 237/298/240 227/299/241
f 208/300/242 211/301/243 243/302/244 240/303/245
f 206/238/195 203/237/194 235/304/246 238/305/247
f 219/241/198 218/240/197 250/306/248 251/295/237
f 176/263/216 179/262/215 211/301/243 208/300/242
f 163/264/217 173/242/199 205/244/201 195/297/239
f 184/202/172 187/239/196 219/241/198 216/294/236
f 175/266/210 162/265/218 194/291/233 207/290/211
f 160/268/219 159/267/167 191/287/230 192/286/229
f 188/270/221 181/269/220 213/283/226 220/282/225
f 177/272/203 176/271/216 208/307/242 209/308/204
f 162/265/218 161/273/222 193/309/249 194/291/233
f 189/209/179 174/235/192 206/238/195 221/310/250
f 161/274/222 178/253/209 210/256/212 193/311/249
f 164/205/175 163/275/217 195/312/239 196/313/251
f 182/277/224 190/276/223 222/314/252 214/315/253
f 179/262/215 180/245/202 212/248/205 211/301/243
f 166/250/206 165/199/169 197/316/254 198/251/207
f 190/276/223 188/278/221 220/317/225 222/314/252
f 181/279/220 182/277/224 214/315/253 213/318/226
f 167/281/171 160/280/219 192/319/229 199/320/255
f 170/210/180 189/209/179 221/310/250 202/321/213
f 183/198/168 172/208/178 204/322/208 215/323/256
f 168/206/176 164/205/175 196/313/251 200/243/200
f 185/192/162 184/202/172 216/294/236 217/261/214
f 169/196/166 167/201/171 199/324/255 201/325/257
f 165/199/169 183/198/168 215/323/256 197/316/254
f 159/197/167 169/196/166 201/325/257 191/326/230
f 237/298/240 232/327/258 228/328/259 227/299/241
f 223/329/231 233/330/260 231/331/261 224/332/232
f 253/333/262 238/305/247 235/304/246 234/334/263
f 252/335/228 245/336/227 246/337/264 254/338/265
f 236/339/266 230/340/267 229/341/268 247/342/269
f 248/296/238 251/295/237 250/306/248 249/343/270
f 226/344/234 225/345/271 242/346/272 239/347/235
f 240/303/245 243/302/244 244/348/273 241/349/274
f 209/308/204 208/307/242 240/350/245 241/351/274
f 194/291/233 193/309/249 225/352/271 226/292/234
f 221/310/250 206/238/195 238/305/247 253/333/262
f 193/311/249 210/256/212 242/346/272 225/345/271
f 196/313/251 195/312/239 227/353/241 228/328/259
f 214/315/253 222/314/252 254/338/265 246/337/264
f 211/301/243 212/248/205 244/348/273 243/302/244
f 198/251/207 197/316/254 229/341/268 230/340/267
f 222/314/252 220/317/225 252/335/228 254/338/265
f 213/318/226 214/315/253 246/337/264 245/336/227
f 199/320/255 192/319/229 224/354/232 231/355/261
f 202/321/213 221/310/250 253/333/262 234/334/263
f 215/323/256 204/322/208 236/339/266 247/342/269
f 200/243/200 196/313/251 228/328/259 232/327/258
f 217/261/214 216/294/236 248/296/238 249/343/270
f 201/325/257 199/324/255 231/331/261 233/330/260
f 197/316/254 215/323/256 247/342/269 229/341/268
f 191/326/230 201/325/257 233/330/260 223/329/231
f 218/240/197 217/261/214 249/343/270 250/306/248
f 203/260/194 202/259/213 234/356/263 235/357/246
f 210/256/212 207/255/211 239/347/235 242/346/272
f 204/252/208 198/251/207 230/340/267 236/358/266
f 212/248/205 209/247/204 241/349/274 244/348/273
f 205/244/201 200/243/200 232/327/258 237/298/240
f 283/359/275 264/117/105 274/101/92 293/360/276
f 278/361/277 259/68/66 273/129/117 292/362/278
f 286/363/279 267/179/155 272/180/156 291/364/280
f 288/365/281 269/184/159 271/185/160 290/366/282
f 290/366/282 271/185/160 270/43/41 289/367/283
f 280/368/284 261/94/88 269/184/159 288/365/281
f 291/364/280 272/180/156 268/74/72 287/369/285
f 275/370/286 256/58/56 267/179/155 286/363/279
f 284/371/287 265/132/120 266/55/53 285/372/288
f 292/362/278 273/129/117 265/132/120 284/371/287
f 282/373/289 263/115/104 264/117/105 283/359/275
f 276/374/290 257/54/52 263/115/104 282/373/289
f 293/360/276 274/101/92 262/39/39 281/375/291
f 294/376/292 255/91/40 261/94/88 280/368/284
f 287/369/285 268/74/72 260/51/49 279/377/293
f 277/378/294 258/46/44 259/68/66 278/361/277
f 285/372/288 266/55/53 256/58/56 275/370/286
f 279/377/293 260/51/49 257/54/52 276/374/290
f 289/367/283 270/43/41 258/46/44 277/378/294
f 281/375/291 262/39/39 255/42/40 294/379/292
f 59/96/90 281/375/291 294/379/292 46/97/86
f 90/86/84 289/367/283 277/378/294 48/64/62
f 56/70/68 279/377/293 276/374/290 47/71/69
f 70/60/58 285/372/288 275/370/286 45/61/59
f 48/64/62 277/378/294 278/361/277 55/65/63
f 86/73/71 287/369/285 279/377/293 56/70/68
f 46/88/86 294/376/292 280/368/284 58/89/87
f 116/100/91 293/360/276 281/375/291 59/96/90
f 47/71/69 276/374/290 282/373/289 73/118/106
f 73/118/106 282/373/289 283/359/275 74/120/108
f 119/126/114 292/362/278 284/371/287 69/127/115
f 69/127/115 284/371/287 285/372/288 70/60/58
f 45/61/59 275/370/286 286/363/279 85/181/157
f 105/182/158 291/364/280 287/369/285 86/73/71
f 58/89/87 280/368/284 288/365/281 89/164/142
f 107/167/144 290/366/282 289/367/283 90/86/84
f 89/164/142 288/365/281 290/366/282 107/167/144
f 85/181/157 286/363/279 291/364/280 105/182/158
f 55/65/63 278/361/277 292/362/278 119/126/114
f 283/359/275 293/360/276 298/380/295 295/381/296
f 296/382/297 295/381/296 298/380/295 297/383/298
f 74/120/108 283/359/275 295/381/296 296/382/297
f 116/100/91 74/120/108 296/382/297 297/383/298
f 293/360/276 116/100/91 297/383/298 298/380/295
usemtl ferris_material.002
f 310/384/299 301/385/300 300/386/301 308/387/302
f 307/388/303 299/389/304 301/385/300 310/384/299
f 301/385/300 299/389/304 302/390/305 304/391/306
f 299/389/304 307/388/303 313/392/307 302/390/305
f 300/386/301 301/385/300 304/391/306 303/393/308
f 310/384/299 308/387/302 306/394/309 309/395/310
f 307/388/303 310/384/299 309/395/310 305/396/311
f 309/395/310 314/397/312 311/398/313 305/396/311
f 305/396/311 311/398/313 313/392/307 307/388/303
f 306/394/309 312/399/314 314/397/312 309/395/310
